DAP-seq SE and PE comparison
…
CentriMo motif status

centrimo_has_central_motif_plot <- make_motif_plot(
  compare_table = pe_se_motifs,
  metric_name = "centrimo_has_central_motif",
  plot_title = "CentriMo centrally enriched motif detected"
)

6 Tables and plots

pe_se_compare

## # A tibble: 28 × 6
##    sample  metric                                   PE    SE    diff pct_change
##    <chr>   <chr>                                 <dbl> <dbl>   <dbl>      <dbl>
##  1 A_12_24 trimmomatic_surviving_pct           92.8     94.6  1.76        1.89 
##  2 A_12_24 bowtie2_overall_alignment_rate_pct  89.6     88.9 -0.700      -0.781
##  3 A_12_24 bowtie2_unique_alignment_pct        55.5     56.2  0.670       1.21 
##  4 A_12_24 pcr_duplicate_pct                   25.1     26.9  1.76        7.01 
##  5 A_12_24 frip_pct                             0.0584   0   -0.0584   -100    
##  6 A_12_24 macs3_peak_count                   132       NA   NA          NA    
##  7 A_12_24 promoter_intersect_count            24       NA   NA          NA    
##  8 A_12_3  trimmomatic_surviving_pct           86.6     88.1  1.48        1.71 
##  9 A_12_3  bowtie2_overall_alignment_rate_pct  89.4     88.8 -0.640      -0.715
## 10 A_12_3  bowtie2_unique_alignment_pct        56.6     57.8  1.10        1.94 
## # ℹ 18 more rows
…
