DAP-seq O’Malley Arabidopsis and Rodriguez Aspen comparison
…
CentriMo motif status

centrimo_has_central_motif_plot <- make_motif_plot(
  motif_table = dataset_motifs,
  metric_name = "centrimo_has_central_motif",
  plot_title = paste0("CentriMo centrally enriched motif detected, E-value < ", centrimo_evalue_cutoff)
)

6 Tables

dataset_compare

## # A tibble: 3,088 × 4
##    sample     dataset              metric                                 value
##    <chr>      <chr>                <chr>                                  <dbl>
##  1 SRR2926076 O'Malley Arabidopsis library_size_fragments             5593468  
##  2 SRR2926076 O'Malley Arabidopsis trimmomatic_surviving_pct               99.3
##  3 SRR2926076 O'Malley Arabidopsis bowtie2_overall_alignment_rate_pct      98.1
##  4 SRR2926076 O'Malley Arabidopsis bowtie2_unique_alignment_pct            61  
##  5 SRR2926076 O'Malley Arabidopsis pcr_duplicate_pct                       71.8
##  6 SRR2926076 O'Malley Arabidopsis frip_pct                                17.9
##  7 SRR2926076 O'Malley Arabidopsis macs3_peak_count                      1952  
##  8 SRR2926076 O'Malley Arabidopsis promoter_intersect_count               903  
##  9 SRR2926077 O'Malley Arabidopsis library_size_fragments             5487444  
## 10 SRR2926077 O'Malley Arabidopsis trimmomatic_surviving_pct               98.7
## # ℹ 3,078 more rows

dataset_motifs

## # A tibble: 772 × 4
##    sample     dataset              metric                     status
##    <chr>      <chr>                <chr>                      <chr> 
##  1 SRR2926076 O'Malley Arabidopsis meme_has_motif             yes   
##  2 SRR2926076 O'Malley Arabidopsis centrimo_has_central_motif yes   
##  3 SRR2926077 O'Malley Arabidopsis meme_has_motif             yes   
##  4 SRR2926077 O'Malley Arabidopsis centrimo_has_central_motif yes   
##  5 SRR2926080 O'Malley Arabidopsis meme_has_motif             yes   
##  6 SRR2926080 O'Malley Arabidopsis centrimo_has_central_motif yes   
##  7 SRR2926082 O'Malley Arabidopsis meme_has_motif             yes   
##  8 SRR2926082 O'Malley Arabidopsis centrimo_has_central_motif yes   
##  9 SRR2926084 O'Malley Arabidopsis meme_has_motif             yes   
## 10 SRR2926084 O'Malley Arabidopsis centrimo_has_central_motif yes   
## # ℹ 762 more rows
…
